{
    "Alt-/": "lua:comment.comment",
    "CtrlUnderscore": "lua:comment.comment",
    "\u001b[2J": "SelectToStartOfTextToggle",
    "\u001b[K": "SelectToEndOfLine",
    "\u001b[P": "Delete",
    "\u001b[4h": "ToggleOverwriteMode"
}
